<?xml version="1.0" encoding="utf-8"?>
<!-- Generator: Adobe Illustrator 23.0.0, SVG Export Plug-In . SVG Version: 6.00 Build 0)  -->
<svg version="1.1" id="Capa_1" xmlns="http://www.w3.org/2000/svg" xmlns:xlink="http://www.w3.org/1999/xlink" x="0px" y="0px"
	 viewBox="0 0 92.38 94.8" style="enable-background:new 0 0 92.38 94.8;" xml:space="preserve">
<style type="text/css">
	.st0{clip-path:url(#SVGID_4_);}
	.st1{fill:#D8AA46;}
	.st2{fill:#211915;}
	.st3{fill:#E8E8E8;}
	.st4{fill:#FFFFFF;}
	.st5{fill:url(#SVGID_7_);}
	.st6{fill:none;stroke:#FFFFFF;stroke-width:2;stroke-miterlimit:10;}
	.st7{stroke:#FFFFFF;stroke-width:2;stroke-miterlimit:10;}
	.st8{fill:#040404;}
	.st9{fill:none;stroke:#FFFFFF;stroke-width:0.5;stroke-miterlimit:10;}
	.st10{fill:#5F5F60;stroke:#FFFFFF;stroke-width:0.5;stroke-miterlimit:10;}
	.st11{fill:none;stroke:#AEADB3;stroke-miterlimit:10;}
	.st12{fill:#AEADB3;}
	.st13{fill:#AEADB3;stroke:#AEADB3;stroke-miterlimit:10;}
	.st14{opacity:0.9;fill:#2E2E2E;}
	.st15{stroke:#FFFFFF;stroke-miterlimit:10;}
	.st16{fill:none;stroke:#FFFFFF;stroke-width:0.5;stroke-linecap:round;stroke-linejoin:round;stroke-miterlimit:10;}
	.st17{fill:none;stroke:#FFFFFF;stroke-linecap:round;stroke-linejoin:round;stroke-miterlimit:10;}
	.st18{fill:none;stroke:#4D4D4D;stroke-linecap:round;stroke-linejoin:round;stroke-miterlimit:10;}
	.st19{fill:none;stroke:#FFFFFF;stroke-width:0.36;stroke-linecap:round;stroke-linejoin:round;stroke-miterlimit:10;}
	.st20{fill:none;stroke:#FFFFFF;stroke-width:0.24;stroke-linecap:round;stroke-linejoin:round;stroke-miterlimit:10;}
	.st21{fill:none;stroke:#B7B7B7;stroke-width:0.24;stroke-linecap:round;stroke-linejoin:round;stroke-miterlimit:10;}
	.st22{fill:#747474;stroke:#FFFFFF;stroke-miterlimit:10;}
	.st23{fill:none;stroke:#FFFFFF;stroke-width:0;stroke-linecap:round;stroke-miterlimit:10;}
	.st24{fill:none;stroke:#FFFFFF;stroke-width:0.2761;stroke-linecap:round;stroke-linejoin:round;stroke-miterlimit:10;}
	.st25{fill:none;stroke:#AEADB3;stroke-width:3;stroke-miterlimit:10;}
	.st26{fill:#AEADB3;stroke:#AEADB3;stroke-width:0.3;stroke-miterlimit:10;}
	.st27{fill:#AEADB3;stroke:#AEADB3;stroke-width:0.8;stroke-miterlimit:10;}
	.st28{fill-rule:evenodd;clip-rule:evenodd;fill:#AEADB3;stroke:#AEADB3;stroke-width:0.8;stroke-miterlimit:10;}
	.st29{fill:none;stroke:#AEADB3;stroke-width:2.5;stroke-miterlimit:10;}
</style>
<g>
	<path class="st29" d="M68.38,64.31l3.79-3.78c6.53-6.52,3.3-15.32-1.96-20.98c-1.73-1.86-3.71-3.48-5.76-4.63
		c-2.67-1.5-11.04-3.69-16.52,1.64L36.56,47.87c-3.07,3.05,4.67,6.01,8.59,2.15l2.86-2.82c4.23-3.84,9.54,3.85,16.17-1.38"/>
	<path class="st29" d="M24.14,62.52l-3.78-3.78c-12.6-12.58,9.22-34.18,22.01-21.74l2.55,2.54"/>
	<path class="st29" d="M54.06,49.94L68.7,65.28c2.99,3.13-1.45,9.09-5.28,5.14l-6.86-7.07"/>
	<path class="st29" d="M50.58,68.11l7.54,7.75c3.02,3.1,9.13-1.48,5.3-5.44l-7.37-7.6"/>
	<path class="st29" d="M48.29,76.67l3.77,3.8c3.05,3.07,8.97-1.31,5.16-5.31"/>
	<path class="st29" d="M33.12,59.41l0.4,0.4c1.36,1.36,1.36,3.59,0,4.95l-5.21,5.21c-1.36,1.36-3.59,1.36-4.95,0l-0.4-0.4
		c-1.36-1.36-1.36-3.59,0-4.95l5.21-5.21C29.53,58.05,31.76,58.05,33.12,59.41L33.12,59.41z M41.89,61.79l0.4,0.4
		c1.36,1.36,1.36,3.59,0,4.95l-8.3,8.3c-1.36,1.36-3.59,1.36-4.95,0l-0.4-0.4c-1.36-1.36-1.36-3.59,0-4.95l8.3-8.3
		C38.3,60.43,40.52,60.43,41.89,61.79L41.89,61.79z M45.28,69.55l0.4,0.4c1.36,1.36,1.36,3.59,0,4.95l-5.69,5.69
		c-1.36,1.36-3.59,1.36-4.95,0l-0.4-0.4c-1.36-1.36-1.36-3.59,0-4.95l5.69-5.69C41.69,68.19,43.92,68.19,45.28,69.55L45.28,69.55z
		 M48.94,76.95l0.4,0.4c1.36,1.36,1.36,3.59,0,4.95l-3.5,3.49c-1.36,1.36-3.59,1.36-4.95,0l-0.4-0.4c-1.36-1.36-1.36-3.59,0-4.95
		l3.49-3.5C45.35,75.59,47.58,75.59,48.94,76.95L48.94,76.95z"/>
</g>
</svg>
