<?xml version="1.0" encoding="utf-8"?>
<!-- Generator: Adobe Illustrator 23.0.0, SVG Export Plug-In . SVG Version: 6.00 Build 0)  -->
<svg version="1.1" id="Capa_1" xmlns="http://www.w3.org/2000/svg" xmlns:xlink="http://www.w3.org/1999/xlink" x="0px" y="0px"
	 viewBox="0 0 92.38 94.8" style="enable-background:new 0 0 92.38 94.8;" xml:space="preserve">
<style type="text/css">
	.st0{clip-path:url(#SVGID_4_);}
	.st1{fill:#D8AA46;}
	.st2{fill:#211915;}
	.st3{fill:#E8E8E8;}
	.st4{fill:#FFFFFF;}
	.st5{fill:url(#SVGID_7_);}
	.st6{fill:none;stroke:#FFFFFF;stroke-width:2;stroke-miterlimit:10;}
	.st7{stroke:#FFFFFF;stroke-width:2;stroke-miterlimit:10;}
	.st8{fill:#040404;}
	.st9{fill:none;stroke:#FFFFFF;stroke-width:0.5;stroke-miterlimit:10;}
	.st10{fill:#5F5F60;stroke:#FFFFFF;stroke-width:0.5;stroke-miterlimit:10;}
	.st11{fill:none;stroke:#AEADB3;stroke-miterlimit:10;}
	.st12{fill:#AEADB3;}
	.st13{fill:#AEADB3;stroke:#AEADB3;stroke-miterlimit:10;}
	.st14{opacity:0.9;fill:#2E2E2E;}
	.st15{stroke:#FFFFFF;stroke-miterlimit:10;}
	.st16{fill:none;stroke:#FFFFFF;stroke-width:0.5;stroke-linecap:round;stroke-linejoin:round;stroke-miterlimit:10;}
	.st17{fill:none;stroke:#FFFFFF;stroke-linecap:round;stroke-linejoin:round;stroke-miterlimit:10;}
	.st18{fill:none;stroke:#4D4D4D;stroke-linecap:round;stroke-linejoin:round;stroke-miterlimit:10;}
	.st19{fill:none;stroke:#FFFFFF;stroke-width:0.36;stroke-linecap:round;stroke-linejoin:round;stroke-miterlimit:10;}
	.st20{fill:none;stroke:#FFFFFF;stroke-width:0.24;stroke-linecap:round;stroke-linejoin:round;stroke-miterlimit:10;}
	.st21{fill:none;stroke:#B7B7B7;stroke-width:0.24;stroke-linecap:round;stroke-linejoin:round;stroke-miterlimit:10;}
	.st22{fill:#747474;stroke:#FFFFFF;stroke-miterlimit:10;}
	.st23{fill:none;stroke:#FFFFFF;stroke-width:0;stroke-linecap:round;stroke-miterlimit:10;}
	.st24{fill:none;stroke:#FFFFFF;stroke-width:0.2761;stroke-linecap:round;stroke-linejoin:round;stroke-miterlimit:10;}
	.st25{fill:none;stroke:#AEADB3;stroke-width:3;stroke-miterlimit:10;}
	.st26{fill:#AEADB3;stroke:#AEADB3;stroke-width:0.3;stroke-miterlimit:10;}
	.st27{fill:#AEADB3;stroke:#AEADB3;stroke-width:0.8;stroke-miterlimit:10;}
	.st28{fill-rule:evenodd;clip-rule:evenodd;fill:#AEADB3;stroke:#AEADB3;stroke-width:0.8;stroke-miterlimit:10;}
	.st29{fill:none;stroke:#AEADB3;stroke-width:2.5;stroke-miterlimit:10;}
</style>
<g>
	<path class="st29" d="M48.01,72.73l7.82-4.16c1.84-0.98,5.43-2.46,5.45,1.21l1.32-0.9c3.71-2.54,6.53-0.74,5.14,2.77
		c6.59-4.79,8.92,1.27,5.98,2.76l-14.58,9.21l-6.18,3.9c-4.37,2.76-10.14,2.8-11.76,1.83c-9.22-2.38-11.88-4.64-19.92-3.61"/>
	<path class="st29" d="M17.41,69.33l9.53-3.87c2.43-0.99,5.16-0.73,6.18,0.03c1.72,1.28,3.44,2.55,5.16,3.83
		c7.17,5.31,7.75,3.98,16.19,4.49c1.87,0.11,3.1,3.12,0,4.32c-7.88,3.6-12.75,1.99-19.93-1.69"/>
	<g>
		<path class="st26" d="M45.96,63.12c-8.58,0-15.55-6.96-15.55-15.51c0-8.55,6.98-15.51,15.55-15.51s15.55,6.96,15.55,15.51
			C61.51,56.16,54.54,63.12,45.96,63.12z M45.96,34.31c-7.36,0-13.34,5.97-13.34,13.3c0,7.33,5.98,13.3,13.34,13.3
			s13.34-5.97,13.34-13.3C59.3,40.28,53.31,34.31,45.96,34.31z"/>
		<path class="st26" d="M52.18,50.84c0-2.97-2.61-3.87-4.99-4.47v-4.43c2.02,0.35,2.35,1.67,2.35,2.51c0,0.61,0.5,1.1,1.11,1.1
			c0.61,0,1.11-0.49,1.11-1.1c0-2.01-1.23-4.32-4.57-4.74v-1.6c0-0.61-0.5-1.1-1.11-1.1s-1.11,0.49-1.11,1.1v1.59
			c-3.81,0.4-4.42,2.84-4.42,4.35c0,2.59,2.25,3.48,4.42,4.05v5.11c-2.23-0.55-2.79-2.3-2.79-2.99c0-0.61-0.5-1.1-1.11-1.1
			s-1.11,0.49-1.11,1.1c0,1.84,1.39,4.63,5.01,5.24v1.66c0,0.61,0.5,1.1,1.11,1.1s1.11-0.49,1.11-1.1v-1.56
			C50.86,55.27,52.18,52.89,52.18,50.84z M42.78,44.04c0-0.57,0-1.82,2.2-2.13v3.88C43.49,45.36,42.78,44.91,42.78,44.04z
			 M47.19,53.33v-4.68c1.88,0.52,2.77,1.03,2.77,2.18C49.97,51.7,49.58,53.1,47.19,53.33z"/>
	</g>
</g>
</svg>
