<?xml version="1.0" encoding="utf-8"?>
<!-- Generator: Adobe Illustrator 23.0.0, SVG Export Plug-In . SVG Version: 6.00 Build 0)  -->
<svg version="1.1" id="Capa_1" xmlns="http://www.w3.org/2000/svg" xmlns:xlink="http://www.w3.org/1999/xlink" x="0px" y="0px"
	 viewBox="0 0 348 103" style="enable-background:new 0 0 348 103;" xml:space="preserve">
<style type="text/css">
	.st0{fill:url(#SVGID_1_);}
	.st1{fill:none;stroke:#FFFFFF;stroke-width:2;stroke-miterlimit:10;}
	.st2{stroke:#FFFFFF;stroke-width:2;stroke-miterlimit:10;}
	.st3{clip-path:url(#SVGID_5_);}
	.st4{fill:#D8AA46;}
	.st5{fill:#211915;}
	.st6{fill:#E8E8E8;}
	.st7{fill:#FFFFFF;}
	.st8{fill:#040404;}
	.st9{fill:none;stroke:#FFFFFF;stroke-width:0.5;stroke-miterlimit:10;}
	.st10{fill:#5F5F60;stroke:#FFFFFF;stroke-width:0.5;stroke-miterlimit:10;}
	.st11{fill:none;stroke:#AEADB3;stroke-miterlimit:10;}
	.st12{fill:#AEADB3;}
	.st13{fill:#AEADB3;stroke:#AEADB3;stroke-miterlimit:10;}
	.st14{opacity:0.9;fill:#2E2E2E;}
	.st15{stroke:#FFFFFF;stroke-miterlimit:10;}
	.st16{fill:none;stroke:#FFFFFF;stroke-width:0.5;stroke-linecap:round;stroke-linejoin:round;stroke-miterlimit:10;}
	.st17{fill:none;stroke:#FFFFFF;stroke-linecap:round;stroke-linejoin:round;stroke-miterlimit:10;}
	.st18{fill:none;stroke:#4D4D4D;stroke-linecap:round;stroke-linejoin:round;stroke-miterlimit:10;}
	.st19{fill:none;stroke:#FFFFFF;stroke-width:0.36;stroke-linecap:round;stroke-linejoin:round;stroke-miterlimit:10;}
	.st20{fill:none;stroke:#FFFFFF;stroke-width:0.24;stroke-linecap:round;stroke-linejoin:round;stroke-miterlimit:10;}
	.st21{fill:none;stroke:#B7B7B7;stroke-width:0.24;stroke-linecap:round;stroke-linejoin:round;stroke-miterlimit:10;}
	.st22{fill:#747474;stroke:#FFFFFF;stroke-miterlimit:10;}
	.st23{fill:none;stroke:#FFFFFF;stroke-width:0;stroke-linecap:round;stroke-miterlimit:10;}
	.st24{fill:none;stroke:#FFFFFF;stroke-width:0.2761;stroke-linecap:round;stroke-linejoin:round;stroke-miterlimit:10;}
</style>
<g>
	<path class="st4" d="M16.28,36.61c1.74-2.17,3.75-3.91,6.03-5.22c2.28-1.31,4.82-1.97,7.62-1.97c2.07,0,3.89,0.33,5.46,0.98
		c1.57,0.66,2.88,1.6,3.91,2.83c1.03,1.24,1.81,2.72,2.34,4.46c0.53,1.74,0.79,3.7,0.79,5.9v24.04h-3.63V43.6
		c0-3.53-0.81-6.29-2.42-8.3c-1.61-2-4.07-3-7.37-3c-2.44,0-4.73,0.62-6.86,1.87c-2.13,1.25-4.03,2.98-5.69,5.2v28.27h-3.63V30.03h2
		c0.63,0,1,0.32,1.1,0.95L16.28,36.61z M31.82,19.26c1.11,0,1.93-0.35,2.48-1.04c0.54-0.69,0.84-1.63,0.89-2.82h2.23
		c0,0.91-0.12,1.76-0.36,2.55c-0.24,0.79-0.59,1.48-1.06,2.06s-1.04,1.03-1.72,1.36c-0.68,0.33-1.46,0.49-2.34,0.49
		c-0.83,0-1.61-0.21-2.34-0.62c-0.73-0.42-1.44-0.87-2.12-1.36c-0.68-0.49-1.34-0.95-1.98-1.36c-0.64-0.42-1.29-0.62-1.95-0.62
		c-1.06,0-1.87,0.36-2.44,1.08c-0.57,0.72-0.86,1.64-0.89,2.78h-2.31c0-0.91,0.13-1.76,0.38-2.55c0.25-0.79,0.62-1.48,1.1-2.06
		c0.48-0.58,1.06-1.03,1.74-1.36c0.68-0.33,1.45-0.49,2.31-0.49c0.86,0,1.65,0.21,2.38,0.62c0.73,0.42,1.43,0.87,2.1,1.36
		c0.67,0.49,1.32,0.95,1.97,1.36C30.51,19.05,31.16,19.26,31.82,19.26z"/>
	<path class="st4" d="M99.4,36.61c1.74-2.17,3.75-3.91,6.03-5.22c2.28-1.31,4.82-1.97,7.62-1.97c2.07,0,3.89,0.33,5.46,0.98
		c1.57,0.66,2.88,1.6,3.91,2.83c1.03,1.24,1.81,2.72,2.34,4.46c0.53,1.74,0.79,3.7,0.79,5.9v24.04h-3.63V43.6
		c0-3.53-0.81-6.29-2.42-8.3c-1.61-2-4.07-3-7.37-3c-2.44,0-4.73,0.62-6.86,1.87c-2.13,1.25-4.03,2.98-5.69,5.2v28.27h-3.63V30.03h2
		c0.63,0,1,0.32,1.1,0.95L99.4,36.61z M114.93,19.26c1.11,0,1.93-0.35,2.48-1.04c0.54-0.69,0.84-1.63,0.89-2.82h2.23
		c0,0.91-0.12,1.76-0.36,2.55c-0.24,0.79-0.59,1.48-1.06,2.06s-1.04,1.03-1.72,1.36c-0.68,0.33-1.46,0.49-2.34,0.49
		c-0.83,0-1.61-0.21-2.34-0.62c-0.73-0.42-1.44-0.87-2.12-1.36c-0.68-0.49-1.34-0.95-1.98-1.36c-0.64-0.42-1.29-0.62-1.95-0.62
		c-1.06,0-1.87,0.36-2.44,1.08c-0.57,0.72-0.86,1.64-0.89,2.78h-2.31c0-0.91,0.13-1.76,0.38-2.55c0.25-0.79,0.62-1.48,1.1-2.06
		c0.48-0.58,1.06-1.03,1.74-1.36c0.68-0.33,1.45-0.49,2.31-0.49c0.86,0,1.65,0.21,2.38,0.62c0.73,0.42,1.43,0.87,2.1,1.36
		c0.67,0.49,1.32,0.95,1.97,1.36C113.63,19.05,114.28,19.26,114.93,19.26z"/>
	<path class="st5" d="M237.48,66.1c0.35,0,0.52,0.17,0.52,0.52v0.82h-24.32v-0.52c0-0.15,0.03-0.28,0.1-0.4
		c0.06-0.12,0.14-0.22,0.23-0.31l13.56-13.72c1.11-1.13,2.15-2.23,3.12-3.31c0.97-1.07,1.81-2.16,2.54-3.27
		c0.73-1.1,1.3-2.24,1.72-3.4c0.42-1.17,0.63-2.41,0.63-3.74c0-1.57-0.26-2.92-0.79-4.04c-0.53-1.13-1.23-2.06-2.1-2.8
		c-0.88-0.74-1.87-1.28-2.99-1.63s-2.28-0.52-3.48-0.52c-1.35,0-2.58,0.2-3.7,0.61s-2.11,0.98-2.98,1.72
		c-0.87,0.74-1.58,1.62-2.13,2.65c-0.56,1.03-0.94,2.16-1.16,3.4c-0.13,0.47-0.4,0.68-0.82,0.63l-0.68-0.08
		c0.22-1.59,0.65-3,1.3-4.25c0.65-1.25,1.47-2.31,2.47-3.18c1-0.87,2.16-1.54,3.47-2.01c1.31-0.47,2.74-0.7,4.29-0.7
		c1.38,0,2.72,0.2,4.02,0.6c1.29,0.4,2.44,1.02,3.44,1.84c1,0.83,1.8,1.89,2.4,3.17c0.6,1.29,0.9,2.8,0.9,4.55
		c0,1.46-0.23,2.82-0.68,4.07c-0.46,1.26-1.07,2.46-1.84,3.61c-0.77,1.15-1.67,2.27-2.69,3.36c-1.02,1.09-2.1,2.21-3.22,3.33
		l-12.96,13.23c0.47-0.07,0.99-0.13,1.54-0.18c0.56-0.05,1.14-0.07,1.76-0.07H237.48z"/>
	<path class="st5" d="M300.88,66.1c0.35,0,0.52,0.17,0.52,0.52v0.82h-24.32v-0.52c0-0.15,0.03-0.28,0.1-0.4
		c0.06-0.12,0.14-0.22,0.23-0.31l13.56-13.72c1.11-1.13,2.15-2.23,3.12-3.31c0.97-1.07,1.81-2.16,2.54-3.27
		c0.73-1.1,1.3-2.24,1.72-3.4c0.42-1.17,0.63-2.41,0.63-3.74c0-1.57-0.26-2.92-0.79-4.04c-0.53-1.13-1.23-2.06-2.1-2.8
		c-0.88-0.74-1.87-1.28-2.99-1.63s-2.28-0.52-3.48-0.52c-1.35,0-2.58,0.2-3.7,0.61s-2.11,0.98-2.98,1.72
		c-0.87,0.74-1.58,1.62-2.13,2.65c-0.56,1.03-0.94,2.16-1.16,3.4c-0.13,0.47-0.4,0.68-0.82,0.63l-0.68-0.08
		c0.22-1.59,0.65-3,1.3-4.25c0.65-1.25,1.47-2.31,2.47-3.18c1-0.87,2.16-1.54,3.47-2.01c1.31-0.47,2.74-0.7,4.29-0.7
		c1.38,0,2.72,0.2,4.02,0.6c1.29,0.4,2.44,1.02,3.44,1.84c1,0.83,1.8,1.89,2.4,3.17c0.6,1.29,0.9,2.8,0.9,4.55
		c0,1.46-0.23,2.82-0.68,4.07c-0.46,1.26-1.07,2.46-1.84,3.61c-0.77,1.15-1.67,2.27-2.69,3.36c-1.02,1.09-2.1,2.21-3.22,3.33
		l-12.96,13.23c0.47-0.07,0.99-0.13,1.54-0.18c0.56-0.05,1.14-0.07,1.76-0.07H300.88z"/>
	<path class="st5" d="M335.16,54.76v0.68c0,0.31-0.18,0.47-0.55,0.47h-7.13v11.53h-1.29V55.91h-18.72c-0.22,0-0.37-0.04-0.46-0.11
		c-0.09-0.07-0.16-0.17-0.19-0.3l-0.14-0.66l19.65-25.88h1.15v25.8H335.16z M326.19,54.76V32.37c0-0.24,0.01-0.47,0.03-0.71
		c0.02-0.24,0.05-0.48,0.08-0.74l-18.01,23.83H326.19z"/>
	<g>
		<path class="st5" d="M223.24,87.13l-0.02,0.44h-7.69V74.54h7.69v0.44h-7.18v5.77h6.05v0.43h-6.05v5.96H223.24z"/>
		<path class="st5" d="M243.34,81.05c0,1.02-0.15,1.93-0.44,2.74s-0.71,1.49-1.25,2.05c-0.54,0.56-1.18,0.99-1.93,1.28
			s-1.57,0.44-2.47,0.44h-4.7V74.54h4.7c0.9,0,1.73,0.15,2.47,0.44s1.39,0.72,1.93,1.28c0.54,0.56,0.95,1.24,1.25,2.05
			C243.2,79.12,243.34,80.03,243.34,81.05z M242.81,81.05c0-0.97-0.13-1.83-0.4-2.59c-0.27-0.76-0.65-1.39-1.14-1.91
			c-0.49-0.52-1.08-0.91-1.76-1.18c-0.68-0.27-1.43-0.41-2.25-0.41h-4.19v12.19h4.19c0.82,0,1.57-0.14,2.25-0.41
			c0.68-0.27,1.27-0.67,1.76-1.19c0.49-0.52,0.87-1.16,1.14-1.91C242.67,82.88,242.81,82.02,242.81,81.05z"/>
		<path class="st5" d="M253.38,87.56h-0.51V74.54h0.51V87.56z"/>
		<path class="st5" d="M264.26,74.97v5.96h6.25v0.44h-6.25v6.19h-0.51V74.54h7.69v0.44H264.26z"/>
		<path class="st5" d="M280.95,87.56h-0.51V74.54h0.51V87.56z"/>
		<path class="st5" d="M300.86,85.62c0.02,0,0.06,0.02,0.1,0.05l0.19,0.2c-0.27,0.27-0.57,0.52-0.88,0.75
			c-0.32,0.23-0.66,0.42-1.04,0.58c-0.38,0.16-0.79,0.29-1.24,0.38c-0.45,0.09-0.94,0.13-1.48,0.13c-0.88,0-1.7-0.16-2.44-0.47
			c-0.74-0.31-1.39-0.76-1.92-1.33c-0.54-0.58-0.96-1.28-1.26-2.1c-0.3-0.82-0.45-1.74-0.45-2.76c0-0.99,0.15-1.9,0.45-2.72
			c0.3-0.82,0.73-1.52,1.28-2.1c0.55-0.58,1.21-1.03,1.98-1.36c0.77-0.32,1.62-0.48,2.54-0.48c0.87,0,1.64,0.13,2.32,0.4
			c0.67,0.27,1.3,0.65,1.88,1.15l-0.14,0.2c-0.02,0.04-0.07,0.06-0.15,0.06c-0.04,0-0.1-0.03-0.19-0.1
			c-0.09-0.07-0.21-0.15-0.35-0.25c-0.15-0.1-0.32-0.21-0.53-0.33c-0.21-0.12-0.45-0.23-0.73-0.33c-0.28-0.1-0.59-0.19-0.94-0.25
			c-0.35-0.07-0.74-0.1-1.17-0.1c-0.84,0-1.61,0.15-2.32,0.44c-0.7,0.29-1.31,0.7-1.82,1.24c-0.51,0.54-0.9,1.19-1.18,1.96
			c-0.28,0.77-0.42,1.63-0.42,2.59c0,0.98,0.14,1.85,0.42,2.62c0.28,0.77,0.67,1.42,1.17,1.95c0.5,0.53,1.09,0.94,1.77,1.23
			c0.68,0.28,1.42,0.43,2.21,0.43c0.5,0,0.95-0.03,1.34-0.1c0.4-0.07,0.76-0.17,1.09-0.31c0.33-0.14,0.64-0.3,0.92-0.5
			c0.28-0.2,0.56-0.42,0.84-0.68C300.78,85.65,300.82,85.62,300.86,85.62z"/>
		<path class="st5" d="M310.68,87.56h-0.51V74.54h0.51V87.56z"/>
		<path class="st5" d="M332.37,81.05c0,1.02-0.15,1.94-0.44,2.76c-0.3,0.82-0.71,1.52-1.25,2.09c-0.54,0.58-1.18,1.02-1.93,1.33
			c-0.75,0.31-1.57,0.46-2.48,0.46c-0.89,0-1.72-0.15-2.46-0.46c-0.75-0.31-1.39-0.75-1.93-1.33c-0.54-0.58-0.95-1.28-1.25-2.09
			c-0.3-0.82-0.45-1.74-0.45-2.76c0-1.01,0.15-1.93,0.45-2.75s0.71-1.52,1.25-2.1c0.54-0.58,1.18-1.02,1.93-1.34
			c0.75-0.32,1.57-0.47,2.46-0.47c0.91,0,1.74,0.16,2.48,0.47c0.75,0.31,1.39,0.76,1.93,1.33c0.54,0.58,0.95,1.28,1.25,2.1
			C332.22,79.11,332.37,80.03,332.37,81.05z M331.83,81.05c0-0.97-0.13-1.84-0.4-2.61c-0.27-0.77-0.65-1.42-1.14-1.96
			c-0.49-0.54-1.08-0.95-1.76-1.23s-1.44-0.43-2.26-0.43c-0.81,0-1.56,0.14-2.25,0.43c-0.68,0.28-1.27,0.69-1.76,1.23
			c-0.49,0.54-0.87,1.19-1.15,1.96c-0.27,0.77-0.41,1.64-0.41,2.61c0,0.97,0.14,1.84,0.41,2.61c0.27,0.77,0.66,1.42,1.15,1.95
			c0.49,0.53,1.08,0.94,1.76,1.22c0.68,0.28,1.43,0.43,2.25,0.43c0.83,0,1.58-0.14,2.26-0.43s1.27-0.69,1.76-1.22
			c0.49-0.53,0.87-1.18,1.14-1.95C331.7,82.89,331.83,82.02,331.83,81.05z"/>
	</g>
	<path class="st4" d="M79.97,30.03v28.27c-1.66,2.22-3.56,3.95-5.69,5.2c-2.13,1.25-4.42,1.87-6.86,1.87c-3.3,0-5.76-1-7.37-3
		c-1.61-2-2.42-4.77-2.42-8.3v-10.2H54v10.2c0,2.19,0.26,4.16,0.79,5.9c0.53,1.74,1.31,3.23,2.34,4.46
		c1.03,1.23,2.33,2.18,3.89,2.83c1.56,0.65,3.39,0.98,5.48,0.98c2.8,0,5.34-0.66,7.62-1.97c2.28-1.31,4.29-3.05,6.03-5.22l0.34,5.59
		c0.1,0.66,0.47,0.98,1.1,0.98h2V30.03H79.97z"/>
	<path class="st4" d="M168.4,40.82c-0.77-2.38-1.88-4.42-3.35-6.1c-1.46-1.69-3.26-2.99-5.39-3.91c-2.05-0.89-4.37-1.33-6.95-1.37
		v2.84c2.12,0.03,3.99,0.41,5.59,1.16c1.68,0.78,3.07,1.9,4.2,3.34c1.12,1.45,1.96,3.19,2.51,5.23s0.83,4.31,0.83,6.8
		c0,2.52-0.28,4.8-0.83,6.82c-0.55,2.03-1.39,3.76-2.51,5.2c-1.12,1.44-2.52,2.54-4.2,3.31c-1.68,0.77-3.63,1.15-5.88,1.15
		c-2.24,0-4.2-0.38-5.88-1.15c-1.68-0.77-3.07-1.87-4.2-3.31c-1.12-1.44-1.97-3.17-2.53-5.2c-0.57-2.03-0.85-4.3-0.85-6.82
		c0-1.35,0.09-2.64,0.26-3.86h-3.71c-0.16,1.23-0.25,2.51-0.25,3.86c0,2.95,0.38,5.61,1.15,7.98c0.77,2.37,1.89,4.4,3.36,6.09
		c1.47,1.69,3.28,2.99,5.41,3.89c2.13,0.91,4.54,1.36,7.24,1.36c2.7,0,5.11-0.45,7.24-1.36c2.13-0.91,3.92-2.2,5.39-3.89
		c1.46-1.69,2.58-3.72,3.35-6.09c0.77-2.37,1.15-5.03,1.15-7.98C169.55,45.87,169.17,43.2,168.4,40.82z"/>
	<path class="st5" d="M269.78,44.96c0.08,1.04,0.14,2.11,0.14,3.26c0,3.23-0.32,6-0.97,8.32c-0.65,2.32-1.53,4.23-2.64,5.71
		c-1.11,1.48-2.4,2.58-3.88,3.29c-1.48,0.71-3.03,1.07-4.67,1.07c-1.66,0-3.22-0.35-4.7-1.07c-1.48-0.71-2.77-1.81-3.88-3.29
		c-1.11-1.49-1.99-3.39-2.65-5.71c-0.66-2.32-0.98-5.1-0.98-8.32c0-3.22,0.33-6,0.98-8.32c0.66-2.32,1.54-4.24,2.65-5.74
		c1.11-1.5,2.41-2.61,3.88-3.32c1.17-0.56,2.4-0.89,3.68-1.01v-1.2c-1.5,0.12-2.93,0.48-4.28,1.12c-1.66,0.78-3.11,1.99-4.35,3.61
		c-1.24,1.62-2.22,3.67-2.94,6.14c-0.72,2.47-1.08,5.38-1.08,8.73c0,3.37,0.36,6.29,1.08,8.75s1.7,4.49,2.94,6.09
		c1.24,1.6,2.69,2.8,4.35,3.58c1.66,0.78,3.43,1.17,5.3,1.17s3.64-0.39,5.3-1.17c1.66-0.78,3.11-1.98,4.35-3.58
		c1.24-1.6,2.22-3.63,2.94-6.09s1.08-5.37,1.08-8.75c0-1.15-0.06-2.22-0.14-3.26H269.78z"/>
	<path class="st4" d="M203.53,37.46c-0.5-1.7-1.25-3.15-2.25-4.35c-1-1.2-2.25-2.12-3.76-2.76c-1.51-0.64-3.28-0.96-5.29-0.96
		c-2.75,0-5.2,0.5-7.37,1.51c-2.17,1.01-4.23,2.5-6.2,4.46l0.64,1.1c0.13,0.2,0.28,0.36,0.45,0.49c0.18,0.13,0.4,0.19,0.68,0.19
		c0.38,0,0.84-0.25,1.4-0.76c0.55-0.5,1.27-1.06,2.15-1.66c0.88-0.61,1.96-1.16,3.23-1.66c1.27-0.5,2.82-0.76,4.63-0.76
		c2.95,0,5.17,0.94,6.67,2.82c1.5,1.88,2.25,4.55,2.25,8.03v3.93c-4.26,0.1-7.91,0.45-10.94,1.06c-3.04,0.61-5.52,1.41-7.47,2.42
		c-1.94,1.01-3.36,2.19-4.27,3.55c-0.91,1.36-1.36,2.83-1.36,4.42c0,1.1,0.13,2.09,0.36,2.98v-1.63h3.23
		c-0.07-0.47-0.12-0.97-0.12-1.51c0-1.33,0.4-2.53,1.21-3.57c0.81-1.04,2.05-1.95,3.72-2.7c1.68-0.76,3.8-1.35,6.39-1.8
		c2.58-0.44,5.66-0.72,9.24-0.85v9.83c-0.88,0.91-1.78,1.75-2.68,2.53c-0.73,0.63-1.51,1.16-2.33,1.65v2.4
		c0.71-0.42,1.41-0.88,2.08-1.41c1.02-0.81,2.05-1.71,3.08-2.72l0.53,4.84c0.18,0.71,0.64,1.06,1.4,1.06h1.44V43.15
		C204.29,41.06,204.04,39.16,203.53,37.46z"/>
</g>
</svg>
